<svg width="122" height="84" viewBox="0 0 122 84" fill="none" xmlns="http://www.w3.org/2000/svg">
<path d="M35 56L87 56" stroke="#757474"/>
<path d="M19.0227 70.0103C18.929 69.7233 18.8054 69.4662 18.652 69.2389C18.5014 69.0088 18.321 68.8128 18.1108 68.6509C17.9034 68.4889 17.6676 68.3654 17.4034 68.2801C17.1392 68.1949 16.8494 68.1523 16.5341 68.1523C16.017 68.1523 15.5469 68.2858 15.1236 68.5529C14.7003 68.8199 14.3636 69.2134 14.1136 69.7333C13.8636 70.2532 13.7386 70.8909 13.7386 71.6466C13.7386 72.4023 13.8651 73.0401 14.1179 73.56C14.3707 74.0799 14.7131 74.4733 15.1449 74.7404C15.5767 75.0074 16.0625 75.1409 16.6023 75.1409C17.1023 75.1409 17.5426 75.0344 17.9233 74.8213C18.3068 74.6054 18.6051 74.3014 18.8182 73.9094C19.0341 73.5145 19.142 73.05 19.142 72.5159L19.4659 72.5841H16.8409V71.6466H20.1648V72.5841C20.1648 73.3029 20.0114 73.9279 19.7045 74.4591C19.4006 74.9904 18.9801 75.4023 18.4432 75.6949C17.9091 75.9847 17.2955 76.1296 16.6023 76.1296C15.8295 76.1296 15.1506 75.9478 14.5653 75.5841C13.983 75.2205 13.5284 74.7034 13.2017 74.033C12.8778 73.3625 12.7159 72.5671 12.7159 71.6466C12.7159 70.9563 12.8082 70.3355 12.9929 69.7844C13.1804 69.2304 13.4446 68.7588 13.7855 68.3696C14.1264 67.9804 14.5298 67.6821 14.9957 67.4747C15.4616 67.2674 15.9744 67.1637 16.5341 67.1637C16.9943 67.1637 17.4233 67.2333 17.821 67.3725C18.2216 67.5088 18.5781 67.7034 18.8906 67.9563C19.206 68.2063 19.4688 68.506 19.679 68.8554C19.8892 69.202 20.0341 69.587 20.1136 70.0103H19.0227ZM21.8384 76.0103V69.4648H22.81V70.4534H22.8782C22.9975 70.1296 23.2134 69.8668 23.5259 69.6651C23.8384 69.4634 24.1907 69.3625 24.5827 69.3625C24.6566 69.3625 24.7489 69.3639 24.8597 69.3668C24.9705 69.3696 25.0543 69.3739 25.1112 69.3796V70.4023C25.0771 70.3938 24.9989 70.381 24.8768 70.3639C24.7575 70.3441 24.631 70.3341 24.4975 70.3341C24.1793 70.3341 23.8952 70.4009 23.6452 70.5344C23.3981 70.6651 23.2021 70.8469 23.0572 71.0799C22.9151 71.31 22.8441 71.5728 22.8441 71.8682V76.0103H21.8384ZM28.2294 76.1637C27.8146 76.1637 27.4382 76.0855 27.1001 75.9293C26.7621 75.7702 26.4936 75.5415 26.2947 75.2432C26.0959 74.9421 25.9964 74.5784 25.9964 74.1523C25.9964 73.7773 26.0703 73.4733 26.218 73.2404C26.3658 73.0046 26.5632 72.8199 26.8104 72.6864C27.0575 72.5529 27.3303 72.4534 27.6286 72.3881C27.9297 72.3199 28.2322 72.2659 28.5362 72.2262C28.9339 72.175 29.2564 72.1367 29.5036 72.1111C29.7536 72.0827 29.9354 72.0358 30.049 71.9705C30.1655 71.9051 30.2237 71.7915 30.2237 71.6296V71.5955C30.2237 71.175 30.1087 70.8483 29.8786 70.6154C29.6513 70.3824 29.3061 70.2659 28.843 70.2659C28.3629 70.2659 27.9865 70.371 27.7138 70.5813C27.4411 70.7915 27.2493 71.0159 27.1385 71.2546L26.1839 70.9137C26.3544 70.5159 26.5817 70.2063 26.8658 69.9847C27.1527 69.7603 27.4652 69.604 27.8033 69.5159C28.1442 69.425 28.4794 69.3796 28.8089 69.3796C29.0192 69.3796 29.2607 69.4051 29.5334 69.4563C29.8089 69.5046 30.0746 69.6054 30.3303 69.7588C30.5888 69.9122 30.8033 70.1438 30.9737 70.4534C31.1442 70.7631 31.2294 71.1779 31.2294 71.6978V76.0103H30.2237V75.1239H30.1726C30.1044 75.2659 29.9908 75.4179 29.8317 75.5799C29.6726 75.7418 29.4609 75.8796 29.1967 75.9932C28.9325 76.1068 28.6101 76.1637 28.2294 76.1637ZM28.3828 75.2603C28.7805 75.2603 29.1158 75.1821 29.3885 75.0259C29.6641 74.8696 29.8714 74.6679 30.0107 74.4208C30.1527 74.1736 30.2237 73.9137 30.2237 73.6409V72.7205C30.1811 72.7716 30.0874 72.8185 29.9425 72.8611C29.8004 72.9009 29.6357 72.9364 29.4482 72.9676C29.2635 72.996 29.0831 73.0216 28.907 73.0443C28.7337 73.0642 28.593 73.0813 28.4851 73.0955C28.2237 73.1296 27.9794 73.185 27.7521 73.2617C27.5277 73.3355 27.3459 73.4478 27.2067 73.5983C27.0703 73.746 27.0021 73.9478 27.0021 74.2034C27.0021 74.5529 27.1314 74.8171 27.3899 74.996C27.6513 75.1722 27.9822 75.2603 28.3828 75.2603ZM33.065 78.4648V69.4648H34.0366V70.5046H34.1559C34.2298 70.3909 34.332 70.246 34.4627 70.0699C34.5962 69.8909 34.7866 69.7318 35.0337 69.5926C35.2837 69.4506 35.6218 69.3796 36.0479 69.3796C36.5991 69.3796 37.0849 69.5174 37.5053 69.7929C37.9258 70.0685 38.2539 70.4591 38.4897 70.9648C38.7255 71.4705 38.8434 72.0671 38.8434 72.7546C38.8434 73.4478 38.7255 74.0486 38.4897 74.5571C38.2539 75.0628 37.9272 75.4549 37.5096 75.7333C37.092 76.0088 36.6104 76.1466 36.065 76.1466C35.6445 76.1466 35.3079 76.077 35.055 75.9378C34.8022 75.7958 34.6076 75.6353 34.4712 75.4563C34.3349 75.2745 34.2298 75.1239 34.1559 75.0046H34.0707V78.4648H33.065ZM34.0536 72.7375C34.0536 73.2318 34.1261 73.6679 34.271 74.0458C34.4158 74.4208 34.6275 74.7148 34.9059 74.9279C35.1843 75.1381 35.5252 75.2432 35.9286 75.2432C36.3491 75.2432 36.6999 75.1324 36.9812 74.9108C37.2653 74.6864 37.4783 74.3853 37.6204 74.0074C37.7653 73.6267 37.8377 73.2034 37.8377 72.7375C37.8377 72.2773 37.7667 71.8625 37.6246 71.4932C37.4854 71.121 37.2738 70.827 36.9897 70.6111C36.7085 70.3924 36.3548 70.283 35.9286 70.283C35.5195 70.283 35.1758 70.3867 34.8974 70.5941C34.619 70.7986 34.4087 71.0855 34.2667 71.4549C34.1246 71.8213 34.0536 72.2489 34.0536 72.7375ZM41.3832 72.0728V76.0103H40.3775V67.283H41.3832V70.4875H41.4684C41.6218 70.1495 41.8519 69.881 42.1587 69.6821C42.4684 69.4804 42.8803 69.3796 43.3945 69.3796C43.8406 69.3796 44.2312 69.4691 44.5664 69.648C44.9016 69.8242 45.1616 70.0955 45.3462 70.462C45.5337 70.8256 45.6275 71.2887 45.6275 71.8512V76.0103H44.6218V71.9193C44.6218 71.3995 44.4869 70.9975 44.217 70.7134C43.9499 70.4264 43.5792 70.283 43.1048 70.283C42.7752 70.283 42.4798 70.3526 42.2184 70.4918C41.9599 70.631 41.7553 70.8341 41.6048 71.1012C41.457 71.3682 41.3832 71.6921 41.3832 72.0728ZM47.4673 76.0103V69.4648H48.473V76.0103H47.4673ZM47.9787 68.3739C47.7827 68.3739 47.6136 68.3071 47.4716 68.1736C47.3324 68.0401 47.2628 67.8796 47.2628 67.6921C47.2628 67.5046 47.3324 67.3441 47.4716 67.2105C47.6136 67.077 47.7827 67.0103 47.9787 67.0103C48.1747 67.0103 48.3423 67.077 48.4815 67.2105C48.6236 67.3441 48.6946 67.5046 48.6946 67.6921C48.6946 67.8796 48.6236 68.0401 48.4815 68.1736C48.3423 68.3071 48.1747 68.3739 47.9787 68.3739ZM52.9741 76.1466C52.3604 76.1466 51.832 76.0017 51.3888 75.712C50.9457 75.4222 50.6048 75.023 50.3661 74.5145C50.1275 74.006 50.0082 73.425 50.0082 72.7716C50.0082 72.1068 50.1303 71.5202 50.3746 71.0117C50.6218 70.5003 50.9656 70.1012 51.4059 69.8142C51.8491 69.5245 52.3661 69.3796 52.957 69.3796C53.4173 69.3796 53.832 69.4648 54.2013 69.6353C54.5707 69.8057 54.8732 70.0443 55.109 70.3512C55.3448 70.658 55.4911 71.0159 55.5479 71.425H54.5423C54.4656 71.1267 54.2951 70.8625 54.0309 70.6324C53.7695 70.3995 53.4173 70.283 52.9741 70.283C52.582 70.283 52.2383 70.3853 51.9428 70.5898C51.6502 70.7915 51.4215 71.077 51.2567 71.4463C51.0948 71.8128 51.0138 72.2432 51.0138 72.7375C51.0138 73.2432 51.0934 73.6835 51.2525 74.0585C51.4144 74.4335 51.6417 74.7247 51.9343 74.9321C52.2298 75.1395 52.5763 75.2432 52.9741 75.2432C53.2354 75.2432 53.4727 75.1978 53.6857 75.1068C53.8988 75.0159 54.0792 74.8853 54.2269 74.7148C54.3746 74.5443 54.4798 74.3398 54.5423 74.1012H55.5479C55.4911 74.4875 55.3505 74.8355 55.1261 75.1452C54.9045 75.452 54.6104 75.6963 54.244 75.8782C53.8803 76.0571 53.457 76.1466 52.9741 76.1466ZM61.6545 70.9307L60.7511 71.1864C60.6942 71.0358 60.6104 70.8895 60.4996 70.7475C60.3917 70.6026 60.244 70.4833 60.0565 70.3895C59.869 70.2958 59.6289 70.2489 59.3363 70.2489C58.9357 70.2489 58.6019 70.3412 58.3349 70.5259C58.0707 70.7077 57.9386 70.9392 57.9386 71.2205C57.9386 71.4705 58.0295 71.6679 58.2113 71.8128C58.3931 71.9577 58.6772 72.0784 59.0636 72.175L60.0352 72.4137C60.6204 72.5557 61.0565 72.773 61.3434 73.0657C61.6303 73.3554 61.7738 73.729 61.7738 74.1864C61.7738 74.5614 61.6658 74.8966 61.4499 75.1921C61.2369 75.4875 60.9386 75.7205 60.555 75.8909C60.1715 76.0614 59.7255 76.1466 59.217 76.1466C58.5494 76.1466 57.9968 76.0017 57.5593 75.712C57.1218 75.4222 56.8448 74.9989 56.7283 74.4421L57.6829 74.2034C57.7738 74.5557 57.9457 74.8199 58.1985 74.996C58.4542 75.1722 58.788 75.2603 59.1999 75.2603C59.6687 75.2603 60.0408 75.1608 60.3164 74.962C60.5948 74.7603 60.734 74.5188 60.734 74.2375C60.734 74.0103 60.6545 73.8199 60.4954 73.6665C60.3363 73.5103 60.092 73.3938 59.7624 73.3171L58.6715 73.0614C58.0721 72.9193 57.6317 72.6992 57.3505 72.4009C57.0721 72.0997 56.9329 71.7233 56.9329 71.2716C56.9329 70.9023 57.0366 70.5756 57.244 70.2915C57.4542 70.0074 57.7397 69.7844 58.1005 69.6225C58.4641 69.4605 58.8761 69.3796 59.3363 69.3796C59.984 69.3796 60.4925 69.5216 60.8619 69.8057C61.234 70.0898 61.4982 70.4648 61.6545 70.9307ZM65.7592 76.1296C65.1854 76.1296 64.6911 76.0245 64.2763 75.8142C63.8615 75.604 63.5419 75.3157 63.3175 74.9492C63.093 74.5827 62.9808 74.1637 62.9808 73.6921C62.9808 73.3284 63.0575 73.006 63.2109 72.7247C63.3672 72.4407 63.5817 72.1779 63.8544 71.9364C64.13 71.6921 64.4467 71.4478 64.8047 71.2034L66.0661 70.2659C66.3132 70.104 66.5107 69.9307 66.6584 69.746C66.8089 69.5614 66.8842 69.3199 66.8842 69.0216C66.8842 68.8 66.7862 68.5855 66.5902 68.3782C66.397 68.1708 66.1428 68.0671 65.8274 68.0671C65.6058 68.0671 65.4098 68.1239 65.2393 68.2375C65.0717 68.3483 64.9396 68.4904 64.843 68.6637C64.7493 68.8341 64.7024 69.0103 64.7024 69.1921C64.7024 69.3966 64.7578 69.604 64.8686 69.8142C64.9822 70.0216 65.1257 70.2347 65.299 70.4534C65.4751 70.6693 65.657 70.8909 65.8445 71.1182L69.8501 76.0103H68.6399L65.3331 72.0216C65.0263 71.6523 64.7479 71.3171 64.4979 71.0159C64.2479 70.7148 64.049 70.4179 63.9013 70.1253C63.7536 69.8327 63.6797 69.5159 63.6797 69.175C63.6797 68.783 63.7663 68.4392 63.9396 68.1438C64.1158 67.8455 64.3615 67.6139 64.6768 67.4492C64.995 67.2816 65.3672 67.1978 65.7933 67.1978C66.2308 67.1978 66.6072 67.283 66.9226 67.4534C67.2379 67.621 67.4808 67.8441 67.6513 68.1225C67.8217 68.398 67.907 68.6978 67.907 69.0216C67.907 69.4392 67.8033 69.8014 67.5959 70.1083C67.3885 70.4151 67.1058 70.7006 66.7479 70.9648L65.0092 72.2603C64.6172 72.55 64.3516 72.8313 64.2124 73.104C64.0732 73.3767 64.0036 73.5728 64.0036 73.6921C64.0036 73.9648 64.0746 74.2191 64.2166 74.4549C64.3587 74.6907 64.5589 74.881 64.8175 75.0259C65.076 75.1708 65.3786 75.2432 65.7251 75.2432C66.0547 75.2432 66.3757 75.1736 66.6882 75.0344C67.0007 74.8924 67.2834 74.6878 67.5362 74.4208C67.7919 74.1537 67.9936 73.8327 68.1413 73.4577C68.2919 73.0827 68.3672 72.6608 68.3672 72.1921H69.3388C69.3388 72.7716 69.272 73.2446 69.1385 73.6111C69.005 73.9776 68.8544 74.2645 68.6868 74.4719C68.5192 74.6793 68.3842 74.8341 68.282 74.9364C68.2479 74.979 68.2166 75.0216 68.1882 75.0642C68.1598 75.1068 68.1286 75.1495 68.0945 75.1921C67.8132 75.5074 67.4581 75.7432 67.0291 75.8995C66.6001 76.0529 66.1768 76.1296 65.7592 76.1296ZM73.793 76.0103H71.0998V67.283H73.9123C74.7589 67.283 75.4833 67.4577 76.0856 67.8071C76.6879 68.1537 77.1495 68.6523 77.4705 69.3029C77.7915 69.9506 77.9521 70.7262 77.9521 71.6296C77.9521 72.5387 77.7901 73.3213 77.4663 73.9776C77.1424 74.631 76.6708 75.1338 76.0515 75.4861C75.4322 75.8355 74.6793 76.0103 73.793 76.0103ZM72.1566 75.0728H73.7248C74.4464 75.0728 75.0444 74.9335 75.5188 74.6551C75.9933 74.3767 76.3469 73.9804 76.5799 73.4662C76.8129 72.952 76.9293 72.3398 76.9293 71.6296C76.9293 70.925 76.8143 70.3185 76.5842 69.81C76.354 69.2986 76.0103 68.9066 75.5529 68.6338C75.0955 68.3583 74.5259 68.2205 73.8441 68.2205H72.1566V75.0728ZM82.3327 76.1466C81.7021 76.1466 81.158 76.0074 80.7006 75.729C80.2461 75.4478 79.8952 75.0557 79.6481 74.5529C79.4038 74.0472 79.2816 73.4591 79.2816 72.7887C79.2816 72.1182 79.4038 71.5273 79.6481 71.0159C79.8952 70.5017 80.239 70.1012 80.6793 69.8142C81.1225 69.5245 81.6396 69.3796 82.2305 69.3796C82.5714 69.3796 82.908 69.4364 83.2404 69.55C83.5728 69.6637 83.8754 69.8483 84.1481 70.104C84.4208 70.3568 84.6381 70.6921 84.8001 71.1097C84.962 71.5273 85.043 72.0415 85.043 72.6523V73.0784H79.9975V72.2091H84.0202C84.0202 71.8398 83.9464 71.5103 83.7987 71.2205C83.6538 70.9307 83.4464 70.702 83.1765 70.5344C82.9094 70.3668 82.5941 70.283 82.2305 70.283C81.8299 70.283 81.4833 70.3824 81.1907 70.5813C80.9009 70.7773 80.6779 71.033 80.5217 71.3483C80.3654 71.6637 80.2873 72.0017 80.2873 72.3625V72.9421C80.2873 73.4364 80.3725 73.8554 80.543 74.1992C80.7163 74.5401 80.9563 74.8 81.2631 74.979C81.57 75.1551 81.9265 75.2432 82.3327 75.2432C82.5969 75.2432 82.8356 75.2063 83.0487 75.1324C83.2646 75.0557 83.4506 74.9421 83.6069 74.7915C83.7631 74.6381 83.8839 74.4478 83.9691 74.2205L84.9407 74.4932C84.8384 74.8228 84.6665 75.1125 84.4251 75.3625C84.1836 75.6097 83.8853 75.8029 83.5302 75.9421C83.1751 76.0784 82.7759 76.1466 82.3327 76.1466ZM91.2092 70.9307L90.3058 71.1864C90.2489 71.0358 90.1651 70.8895 90.0543 70.7475C89.9464 70.6026 89.7987 70.4833 89.6112 70.3895C89.4237 70.2958 89.1836 70.2489 88.891 70.2489C88.4904 70.2489 88.1566 70.3412 87.8896 70.5259C87.6254 70.7077 87.4933 70.9392 87.4933 71.2205C87.4933 71.4705 87.5842 71.6679 87.766 71.8128C87.9478 71.9577 88.2319 72.0784 88.6183 72.175L89.5898 72.4137C90.1751 72.5557 90.6112 72.773 90.8981 73.0657C91.185 73.3554 91.3285 73.729 91.3285 74.1864C91.3285 74.5614 91.2205 74.8966 91.0046 75.1921C90.7915 75.4875 90.4933 75.7205 90.1097 75.8909C89.7262 76.0614 89.2802 76.1466 88.7717 76.1466C88.104 76.1466 87.5515 76.0017 87.114 75.712C86.6765 75.4222 86.3995 74.9989 86.283 74.4421L87.2376 74.2034C87.3285 74.5557 87.5004 74.8199 87.7532 74.996C88.0089 75.1722 88.3427 75.2603 88.7546 75.2603C89.2234 75.2603 89.5955 75.1608 89.8711 74.962C90.1495 74.7603 90.2887 74.5188 90.2887 74.2375C90.2887 74.0103 90.2092 73.8199 90.0501 73.6665C89.891 73.5103 89.6467 73.3938 89.3171 73.3171L88.2262 73.0614C87.6268 72.9193 87.1864 72.6992 86.9052 72.4009C86.6268 72.0997 86.4876 71.7233 86.4876 71.2716C86.4876 70.9023 86.5913 70.5756 86.7987 70.2915C87.0089 70.0074 87.2944 69.7844 87.6552 69.6225C88.0188 69.4605 88.4308 69.3796 88.891 69.3796C89.5387 69.3796 90.0472 69.5216 90.4165 69.8057C90.7887 70.0898 91.0529 70.4648 91.2092 70.9307ZM92.8423 76.0103V69.4648H93.848V76.0103H92.8423ZM93.3537 68.3739C93.1577 68.3739 92.9886 68.3071 92.8466 68.1736C92.7074 68.0401 92.6378 67.8796 92.6378 67.6921C92.6378 67.5046 92.7074 67.3441 92.8466 67.2105C92.9886 67.077 93.1577 67.0103 93.3537 67.0103C93.5497 67.0103 93.7173 67.077 93.8565 67.2105C93.9986 67.3441 94.0696 67.5046 94.0696 67.6921C94.0696 67.8796 93.9986 68.0401 93.8565 68.1736C93.7173 68.3071 93.5497 68.3739 93.3537 68.3739ZM98.332 78.6012C97.8462 78.6012 97.4286 78.5387 97.0792 78.4137C96.7298 78.2915 96.4386 78.1296 96.2056 77.9279C95.9755 77.729 95.7923 77.5159 95.6559 77.2887L96.457 76.7262C96.5479 76.8455 96.663 76.9818 96.8022 77.1353C96.9414 77.2915 97.1317 77.4264 97.3732 77.5401C97.6175 77.6566 97.9371 77.7148 98.332 77.7148C98.8604 77.7148 99.2965 77.587 99.6403 77.3313C99.984 77.0756 100.156 76.675 100.156 76.1296V74.8H100.071C99.9968 74.9193 99.8917 75.0671 99.7553 75.2432C99.6218 75.4165 99.4286 75.5713 99.1758 75.7077C98.9258 75.8412 98.5877 75.908 98.1616 75.908C97.6332 75.908 97.1587 75.783 96.7383 75.533C96.3207 75.283 95.9897 74.9193 95.7454 74.4421C95.5039 73.9648 95.3832 73.3853 95.3832 72.7034C95.3832 72.033 95.5011 71.4492 95.7369 70.952C95.9727 70.452 96.3008 70.0657 96.7212 69.7929C97.1417 69.5174 97.6275 69.3796 98.1786 69.3796C98.6048 69.3796 98.9428 69.4506 99.1928 69.5926C99.4457 69.7318 99.6388 69.8909 99.7724 70.0699C99.9087 70.246 100.014 70.3909 100.088 70.5046H100.19V69.4648H101.162V76.1978C101.162 76.7603 101.034 77.2176 100.778 77.5699C100.525 77.925 100.184 78.185 99.7553 78.3497C99.3292 78.5174 98.8548 78.6012 98.332 78.6012ZM98.2979 75.0046C98.7013 75.0046 99.0423 74.9122 99.3207 74.7276C99.5991 74.5429 99.8107 74.2773 99.9556 73.9307C100.1 73.5841 100.173 73.1693 100.173 72.6864C100.173 72.2148 100.102 71.7986 99.9599 71.4378C99.8178 71.077 99.6076 70.7943 99.3292 70.5898C99.0508 70.3853 98.707 70.283 98.2979 70.283C97.8718 70.283 97.5167 70.3909 97.2326 70.6068C96.9513 70.8228 96.7397 71.1125 96.5977 71.4762C96.4585 71.8398 96.3888 72.2432 96.3888 72.6864C96.3888 73.1409 96.4599 73.5429 96.6019 73.8924C96.7468 74.2389 96.9599 74.5117 97.2411 74.7105C97.5252 74.9066 97.8775 75.0046 98.2979 75.0046ZM104.008 72.0728V76.0103H103.002V69.4648H103.974V70.4875H104.059C104.213 70.1551 104.446 69.8881 104.758 69.6864C105.071 69.4818 105.474 69.3796 105.968 69.3796C106.412 69.3796 106.799 69.4705 107.132 69.6523C107.464 69.8313 107.723 70.104 107.907 70.4705C108.092 70.8341 108.184 71.2943 108.184 71.8512V76.0103H107.179V71.9193C107.179 71.4051 107.045 71.0046 106.778 70.7176C106.511 70.4279 106.145 70.283 105.679 70.283C105.358 70.283 105.071 70.3526 104.818 70.4918C104.568 70.631 104.37 70.8341 104.225 71.1012C104.081 71.3682 104.008 71.6921 104.008 72.0728Z" fill="black"/>
<path d="M62.5355 11.7975L59.7498 11.8108L61.0107 8.79489L62.5355 11.7975Z" fill="#3F3F3F"/>
<path d="M65.5436 17.3858L65.6123 31.7176L57.0018 31.7588L56.9337 17.5488" fill="#66CDAA"/>
<path d="M62.8288 11.9509L65.0044 16.7684L57.4697 16.8049L59.5994 11.9664" fill="#66CDAA"/>
<path d="M65.6342 36.325L65.6616 42.0349L57.0511 42.0762L57.0244 36.4146" fill="#66CDAA"/>
<path d="M65.6078 30.7908L65.6359 36.6377L57.0254 36.6789L56.9976 30.8815" fill="#66CDAA"/>
<path d="M65.1123 39.151L65.1247 41.8176L57.5904 41.8537L57.5778 39.2095M65.007 17.2465L57.4723 17.283M59.6053 11.9524L57.47 16.805L57.5648 36.5886L65.0999 36.5525L65.0047 16.7685L62.8237 11.9282L59.6053 11.9524Z" stroke="black" stroke-miterlimit="10" stroke-linecap="round" stroke-linejoin="round"/>
<path d="M62.8286 11.9396L61.1974 8.43706L59.5996 11.9669M64.8467 30.9914L57.6066 31.0257" stroke="black" stroke-miterlimit="10" stroke-linecap="round" stroke-linejoin="round"/>
<path d="M50.5842 15.4187L56.8496 28.3086L49.1054 32.0728L42.8932 19.2924" fill="#66CDAA"/>
<path d="M45.8633 13.0417L49.8311 15.0954L43.0547 18.3897L42.4101 8.43728" fill="#66CDAA"/>
<path d="M58.8638 32.4526L61.36 37.588L53.6158 41.3522L51.1411 36.2601" fill="#66CDAA"/>
<path d="M56.4444 27.4749L59.0005 32.7335L51.2563 36.4978L48.7219 31.2836" fill="#66CDAA"/>
<path d="M59.6165 35.2259L60.7819 37.6244L54.0056 40.9181L52.8497 38.54M50.0402 15.5253L43.2638 18.8195M42.4103 8.43715L43.1829 9.46728C44.9472 11.8197 47.2198 13.7436 49.8313 15.0954V15.0954L58.4806 32.8889L51.7036 36.183L43.0548 18.3896L42.9897 17.9654C42.604 15.4539 42.4103 12.9166 42.4103 10.3756L42.4103 8.43715Z" stroke="black" stroke-miterlimit="10" stroke-linecap="round" stroke-linejoin="round"/>
<rect x="60.8277" y="17.6462" width="1.15109" height="9.20876" fill="black"/>
<rect x="46.6193" y="17.3638" width="1.15109" height="11.5039" transform="rotate(-26.4568 46.6193 17.3638)" fill="black"/>
<rect x="73.5416" y="9.07721" width="5.90657" height="22.0219" transform="rotate(19.8269 73.5416 9.07721)" fill="#66CDAA" stroke="black"/>
<path d="M47.4671 49.3766L45.2649 27.3547H76.3906L74.1884 49.3766H47.4671Z" fill="white" stroke="black"/>
<path d="M72.4976 13.637L80.6882 16.2228L78.3009 23.0953" stroke="black"/>
<path d="M42.9103 48.0747H78.7453V51.6791H42.9103V48.0747Z" fill="#B4B4B4" stroke="black"/>
</svg>
